UPDATE `t_feed` SET `create_time`= 1394261629980 - 5*24*60*60*1000 + 10*24*60*60*1000*rand()
UPDATE `t_feed` SET `random`= 10000*rand()
UPDATE `t_feed` SET `create_time`= 1394261629980 + 3*24*60*60*1000*rand() where `id`>1493


UPDATE `t_feed` SET `create_time`= 1394426040228 + 20*24*60*60*1000*rand() where `create_time` > 1394426040228

UPDATE `t_feed` SET `create_time`= 1394426040228 + 20*24*60*60*1000*rand() where `create_time` > 1394426040228;# 影响了 8400 行。

UPDATE `t_feed` SET `num_like`=0, `num_unlike`=0 where `create_time` > 1394426040228;# 影响了 3936 行。